…
This could indicate some strange method or issue in the collection of data. However, since there is no information in the paper about the method of data collection for these variables, we are assuming that the data is correct.   

## Which breed of dog has the largest body mass?    


```r
dog %>% 
       group_by(breed) %>% 
        summarize(mean_body_weight = mean(body_mass_kg, na.rm = T)) %>% 
        filter(mean_body_weight != "NaN") %>% 
        arrange(desc(mean_body_weight))
```

```
## # A tibble: 207 × 2
##    breed                   mean_body_weight
##    <chr>                              <dbl>
##  1 CaucasianOvcharka                   75  
##  2 Boerboel                            73  
##  3 EnglishMastiff                      70.3
##  4 SaintBernard                        70.3
##  5 TibetanMastiff                      70.3
##  6 TosaInu                             68  
##  7 GreatDane                           62.4
##  8 GreaterSwissMountainDog             60  
##  9 NeapolitanMastiff                   60  
## 10 DogueDeBordeaux                     59.5
## # ℹ 197 more rows
```

## Which breed of dog has the largest height?    


```r
dog %>% 
       group_by(breed) %>% 
        summarize(mean_height = mean(height_cm, na.rm = T)) %>% 
        filter(mean_height != "NaN") %>% 
        arrange(desc(mean_height))
```

```
## # A tibble: 201 × 2
##    breed                mean_height
##    <chr>                      <dbl>
##  1 GreatDane                   78.7
##  2 IrishWolfhound              78.7
##  3 Akbash                      77.5
##  4 AnatolianShepherdDog        76  
##  5 ScottishDeerhound           74.9
##  6 Landseer                    73.5
##  7 EnglishMastiff              73  
##  8 Leonberger                  72.5
##  9 GreatPyrenees               71.8
## 10 Greyhound                   71.8
## # ℹ 191 more rows
```

## Which breed of dog has the smallest height?    


```r
dog %>% 
       group_by(breed) %>% 
        summarize(mean_height = mean(height_cm, na.rm = T)) %>% 
        filter(mean_height != "NaN") %>% 
        arrange(mean_height)
```

```
## # A tibble: 201 × 2
##    breed            mean_height
##    <chr>                  <dbl>
##  1 YorkshireTerrier        16.5
##  2 BrusselsGriffon         17.8
##  3 Chihuahua               19  
##  4 Pekingese               19  
##  5 Pomeranian              20  
##  6 Maltese                 22.5
##  7 BiewerTerrier           22.9
##  8 JapaneseChin            23.5
##  9 NorfolkTerrier          24  
## 10 Papillon                24  
## # ℹ 191 more rows
```
…
