…
#### We notice that all the variables are of data class character, which is not desired for variables including `body_mass_kg`, `height_cm`.   

## Where are the NA's?   


```r
miss_var_summary(dog)
```

```
## # A tibble: 25 × 3
##    variable       n_miss pct_miss
##    <chr>           <int>    <dbl>
##  1 bio_sample        486    37.4 
##  2 height_cm         277    21.3 
##  3 sex               270    20.8 
##  4 body_mass_kg      243    18.7 
##  5 longitude         163    12.6 
##  6 latitude          163    12.6 
##  7 chr15_41217964    158    12.2 
##  8 chr15_41217985    146    11.2 
##  9 chr15_41221438    120     9.24
## 10 chr15_41228068    120     9.24
## # ℹ 15 more rows
```
…
