…
#### We notice that all the variables are of data class character, which is not desired for the variables `body_mass_kg`, `heigh_cm`.   

### Where are the NA's?   


```r
miss_var_summary(dog)
```

```
## # A tibble: 25 × 3
##    variable       n_miss pct_miss
##    <chr>           <int>    <dbl>
##  1 bio_sample        486    37.4 
##  2 height_cm         277    21.3 
##  3 sex               270    20.8 
##  4 body_mass_kg      243    18.7 
##  5 longitude         163    12.6 
##  6 latitude          163    12.6 
##  7 chr15_41217964    158    12.2 
##  8 chr15_41217985    146    11.2 
##  9 chr15_41221438    120     9.24
## 10 chr15_41228068    120     9.24
## # ℹ 15 more rows
```
…
## Which breed of dog has the largest body mass?    


```r
dog %>% 
       group_by(breed) %>% 
        summarize(mean_body_weight = mean(body_mass_kg, na.rm = T)) %>% 
        filter(mean_body_weight != "NaN") %>% 
        arrange(desc(mean_body_weight))
```

```
## # A tibble: 207 × 2
##    breed                   mean_body_weight
##    <chr>                              <dbl>
##  1 CaucasianOvcharka                   75  
##  2 Boerboel                            73  
##  3 EnglishMastiff                      70.3
##  4 SaintBernard                        70.3
##  5 TibetanMastiff                      70.3
##  6 TosaInu                             68  
##  7 GreatDane                           62.4
##  8 GreaterSwissMountainDog             60  
##  9 NeapolitanMastiff                   60  
## 10 DogueDeBordeaux                     59.5
## # ℹ 197 more rows
```

## Which breed of dog has the largest height?    


```r
dog %>% 
       group_by(breed) %>% 
        summarize(mean_height = mean(height_cm, na.rm = T)) %>% 
        filter(mean_height != "NaN") %>% 
        arrange(desc(mean_height))
```

```
## # A tibble: 201 × 2
##    breed                mean_height
##    <chr>                      <dbl>
##  1 GreatDane                   78.7
##  2 IrishWolfhound              78.7
##  3 Akbash                      77.5
##  4 AnatolianShepherdDog        76  
##  5 ScottishDeerhound           74.9
##  6 Landseer                    73.5
##  7 EnglishMastiff              73  
##  8 Leonberger                  72.5
##  9 GreatPyrenees               71.8
## 10 Greyhound                   71.8
## # ℹ 191 more rows
```

## Which breed of dog has the smallest height?    


```r
dog %>% 
       group_by(breed) %>% 
        summarize(mean_height = mean(height_cm, na.rm = T)) %>% 
        filter(mean_height != "NaN") %>% 
        arrange(mean_height)
```

```
## # A tibble: 201 × 2
##    breed            mean_height
##    <chr>                  <dbl>
##  1 YorkshireTerrier        16.5
##  2 BrusselsGriffon         17.8
##  3 Chihuahua               19  
##  4 Pekingese               19  
##  5 Pomeranian              20  
##  6 Maltese                 22.5
##  7 BiewerTerrier           22.9
##  8 JapaneseChin            23.5
##  9 NorfolkTerrier          24  
## 10 Papillon                24  
## # ℹ 191 more rows
```
…
